{
    "appidkey": "Sample",
    "mwaddrkey": "",
    "isNewAppWithRespectToAndroidPackageName": "",
    "defaulttheme": "defaultTheme",
    "apppackagekey": "",
    "appaddrkey": "",
    "nativeContainerProperties": {
        "isModified": false,
        "isEnableJSContainer": false,
        "isEnableJSContainerAndroid": false,
        "isEnableJSContaineriOS": false
    },
    "appnamekey": "Sample",
    "currentgaversion": "8.1.0",
    "appversionkey": "1.0.0",
    "project.type": "js",
    "startupformkey": "g7fa2e778de84d08ad57543b680031ef",
    "enableCustomData": false,
    "vendornamekey": "KonyLabs",
    "createdgaversion": "8.1.0",
    "konyVizVersion": "8.1.0",
    "isDpScaleFactor": true,
    "isMVC": true,
    "referenceWidth": "375",
    "winmobileguidkey": "",
    "APPLICATION_THEME": "default",
    "build": "debug",
    "mastersProperties": {
        "mastersVersion": "2.0.0"
    },
    "appmenu": {
        "tablet": {
            "data": [
                {
                    "windows8": {
                        "appBarButtonStyle": "No Style",
                        "position": "BOTTOM_LEFT"
                    },
                    "android": {
                        "showAsFlag": 0
                    },
                    "kuid": "dc604e1f777c4c80a212993516e8f785",
                    "icon": {
                        "default": "option1.png"
                    },
                    "id": "appmenuitemid1",
                    "title": "Item 1"
                },
                {
                    "windows8": {
                        "appBarButtonStyle": "No Style",
                        "position": "BOTTOM_LEFT"
                    },
                    "android": {
                        "showAsFlag": 0
                    },
                    "kuid": "ha40ded04b16488b8473bfcb8e3ad4c5",
                    "icon": {
                        "default": "option2.png"
                    },
                    "id": "appmenuitemid2",
                    "title": "Item 2"
                },
                {
                    "windows8": {
                        "appBarButtonStyle": "No Style",
                        "position": "BOTTOM_LEFT"
                    },
                    "android": {
                        "showAsFlag": 0
                    },
                    "kuid": "f254728e95f7409aae68bca798d7ddae",
                    "icon": {
                        "default": "option3.png"
                    },
                    "id": "appmenuitemid3",
                    "title": "Item 3"
                },
                {
                    "windows8": {
                        "appBarButtonStyle": "No Style",
                        "position": "BOTTOM_LEFT"
                    },
                    "android": {
                        "showAsFlag": 0
                    },
                    "kuid": "e35fdea2a34b4c79b0828b821d159ddd",
                    "icon": {
                        "default": "option4.png"
                    },
                    "id": "appmenuitemid4",
                    "title": "Item 4"
                }
            ]
        },
        "desktop": {
            "data": [
                {
                    "kuid": "b46a2e0a085540f3bd0dde5bda4b3918",
                    "icon": {
                        "default": "option1.png"
                    },
                    "id": "appmenuitemid1",
                    "title": "Item 1"
                },
                {
                    "kuid": "c5ddc0a1f0424b1d837818c5bd46c2be",
                    "icon": {
                        "default": "option2.png"
                    },
                    "id": "appmenuitemid2",
                    "title": "Item 2"
                },
                {
                    "kuid": "i25b8f56838241b787348d5445ac4b1d",
                    "icon": {
                        "default": "option3.png"
                    },
                    "id": "appmenuitemid3",
                    "title": "Item 3"
                },
                {
                    "kuid": "d88e0d278fc0425099a71a614065deaf",
                    "icon": {
                        "default": "option4.png"
                    },
                    "id": "appmenuitemid4",
                    "title": "Item 4"
                }
            ]
        },
        "focusskin": null,
        "osVersion": "iOS7",
        "wType": "Appmenu",
        "focusSkin": null,
        "mobile": {
            "data": [
                {
                    "kuid": "a44264cb25f54e17a1721f15bf2281fb",
                    "android": {
                        "showAsFlag": 0
                    },
                    "icon": {
                        "default": "option1.png"
                    },
                    "id": "appmenuitemid1",
                    "title": "Item 1"
                },
                {
                    "kuid": "b77fecafdd2f48a5bf94ba40492ea751",
                    "android": {
                        "showAsFlag": 0
                    },
                    "icon": {
                        "default": "option2.png"
                    },
                    "id": "appmenuitemid2",
                    "title": "Item 2"
                },
                {
                    "kuid": "g0206a3181a04ac2bb4f76fba693d0b9",
                    "android": {
                        "showAsFlag": 0
                    },
                    "icon": {
                        "default": "option3.png"
                    },
                    "id": "appmenuitemid3",
                    "title": "Item 3"
                },
                {
                    "kuid": "ecae55ed0f1a4bebbb3f8b4855af9fca",
                    "android": {
                        "showAsFlag": 0
                    },
                    "icon": {
                        "default": "option4.png"
                    },
                    "id": "appmenuitemid4",
                    "title": "Item 4"
                }
            ]
        },
        "skin": null,
        "osPlatform": ""
    },
    "project_version": "sprint30",
    "mwportkey": "",
    "category": "app",
    "createdVizVersion": "8.1.0",
    "mwhttpsportkey": "",
    "wap_bb400_fontsize": "14",
    "wap_bb360_fontsize": "13",
    "wap_spawindowstab_fontsize": "17",
    "wap_android360_fontsize": "13",
    "isA11yConfigEnabled": false,
    "wap_android440_fontsize": "15",
    "wap_android400_fontsize": "14",
    "wap_spaandroidtabhdpi_fontsize": "18",
    "cordovaVersionInfo": {
        "useGlobalCordova": false
    },
    "wap_bb320_fontsize": "15",
    "enableCordova": false,
    "wap_bb240_fontsize": "12",
    "enableIdForAutomation": false,
    "desktopwebbasefontsize": "16",
    "wap_android240_fontsize": "10",
    "wap_spaandroidtabldpi_fontsize": "14",
    "wap_spaandroidtabmdpi_fontsize": "16",
    "wap_bb480_fontsize": "17",
    "wap_winphone480_fontsize": "12",
    "wap_android640_fontsize": "19",
    "wap_android320_fontsize": "12",
    "wap_spaandroidtab_fontsize": "17",
    "wap_android480_fontsize": "16",
    "wap_winphone320_fontsize": "12",
    "wap_spaipad_fontsize": "17",
    "wap_ip_fontsize": "12",
    "cordovaModified": false,
    "wap_bb440_fontsize": "15",
    "watchos_shortlooknotificationicon_42": "",
    "statusBarHidden": "false",
    "watchos_longlooknotificationicon_42": "",
    "watchos_companionSettings3x29": "",
    "watchos_homeScreen40": "",
    "watchos_companionSettings2x29": "",
    "watchos_shortlooknotificationicon_38": "",
    "watchos_notificationcentericon_38": "",
    "watchos_notificationcentericon_42": "",
    "watchos_watchMarketing1x": "",
    "enableactionbar": false
}